COCINA:394000000:INVERSION_AUTO:6952000:FEC_3_4:QAM_256:331:332:330
TNT HD:394000000:INVERSION_AUTO:6952000:FEC_3_4:QAM_256:7051:7052:7050
AXN HD:394000000:INVERSION_AUTO:6952000:FEC_3_4:QAM_256:7211:7212:7210
TNT HD+2:394000000:INVERSION_AUTO:6952000:FEC_3_4:QAM_256:7391:7392:7390
CALLE 13 HD:402000000:INVERSION_AUTO:6952000:FEC_3_4:QAM_256:7021:7022:7020
NATIONAL GEO HD:402000000:INVERSION_AUTO:6952000:FEC_3_4:QAM_256:7231:7232:7230
FOX HD:402000000:INVERSION_AUTO:6952000:FEC_3_4:QAM_256:7241:7242:7240
MTV LIVE HD:410000000:INVERSION_AUTO:6952000:FEC_3_4:QAM_256:701:702:700
COSMOPOLITAN HD:410000000:INVERSION_AUTO:6952000:FEC_3_4:QAM_256:7031:7032:7030
AXN WHITE HD:410000000:INVERSION_AUTO:6952000:FEC_3_4:QAM_256:7221:7222:7220
SYFY HD:418000000:INVERSION_AUTO:6952000:FEC_3_4:QAM_256:7061:7062:7060
HOLLYWOOD HD:418000000:INVERSION_AUTO:6952000:FEC_3_4:QAM_256:7261:7262:7260
NATGEO WILD HD:418000000:INVERSION_AUTO:6952000:FEC_3_4:QAM_256:7271:7272:7270
CANAL INVITADO:426000000:INVERSION_AUTO:6875000:FEC_3_4:QAM_64:121:122:120
INTERECONOMIA:426000000:INVERSION_AUTO:6875000:FEC_3_4:QAM_64:5111:5112:5110
ETB1:426000000:INVERSION_AUTO:6875000:FEC_3_4:QAM_64:5331:5332:5330
TELEBILBAO:426000000:INVERSION_AUTO:6875000:FEC_3_4:QAM_64:6151:6152:6150
TELEVITORIA:426000000:INVERSION_AUTO:6875000:FEC_3_4:QAM_64:6171:6172:6170
ERLO TB:426000000:INVERSION_AUTO:6875000:FEC_3_4:QAM_64:6181:6182:6180
TELEDONOSTIA:426000000:INVERSION_AUTO:6875000:FEC_3_4:QAM_64:6191:6192:6190
TAROT TV:434000000:INVERSION_AUTO:6875000:FEC_3_4:QAM_64:541:542:540
EUSKADI IRRATIA:434000000:INVERSION_AUTO:6875000:FEC_3_4:QAM_64:0:4512:4510
RADIO EUSKADI:434000000:INVERSION_AUTO:6875000:FEC_3_4:QAM_64:0:4522:4520
GAZTEA:434000000:INVERSION_AUTO:6875000:FEC_3_4:QAM_64:0:4532:4530
ENERGY:434000000:INVERSION_AUTO:6875000:FEC_3_4:QAM_64:5141:5142:5140
MEGA:434000000:INVERSION_AUTO:6875000:FEC_3_4:QAM_64:5231:5232:5230
ETB1:434000000:INVERSION_AUTO:6875000:FEC_3_4:QAM_64:5311:5312:5310
ETB2:434000000:INVERSION_AUTO:6875000:FEC_3_4:QAM_64:5321:5322:5320
EGURALDIA24:434000000:INVERSION_AUTO:6875000:FEC_3_4:QAM_64:6201:6202:6200
CAZAVISION:442000000:INVERSION_AUTO:6875000:FEC_3_4:QAM_64:201:202:200
VAUGHAN TV:442000000:INVERSION_AUTO:6875000:FEC_3_4:QAM_64:1131:1132:1130
NICK HD:442000000:INVERSION_AUTO:6875000:FEC_3_4:QAM_64:7341:7342:7340
INDICE DIALES:466000000:INVERSION_AUTO:6952000:FEC_3_4:QAM_256:7001:0:7000
HISTORIA HD:466000000:INVERSION_AUTO:6952000:FEC_3_4:QAM_256:7121:7122:7120
CANAL INVITADO HD:466000000:INVERSION_AUTO:6952000:FEC_3_4:QAM_256:7441:7442:7440
ATRESERIES HD:482000000:INVERSION_AUTO:6952000:FEC_3_4:QAM_256:6551:6552:6550
BEMAD TV HD:482000000:INVERSION_AUTO:6952000:FEC_3_4:QAM_256:6581:6582:6580
VIAJAR HD:482000000:INVERSION_AUTO:6952000:FEC_3_4:QAM_256:7041:7042:7040
DISNEY HD:482000000:INVERSION_AUTO:6952000:FEC_3_4:QAM_256:7071:7073:7070
XTREME HD:610000000:INVERSION_AUTO:6952000:FEC_3_4:QAM_256:7171:7172:7170
FOXLIFE HD:610000000:INVERSION_AUTO:6952000:FEC_3_4:QAM_256:7321:7322:7320
DISNEY HD +2:610000000:INVERSION_AUTO:6952000:FEC_3_4:QAM_256:7451:7452:7450
AMC+2:618000000:INVERSION_AUTO:6952000:FEC_3_4:QAM_256:351:352:350
HOLLYWOOD+2:618000000:INVERSION_AUTO:6952000:FEC_3_4:QAM_256:391:392:390
NICKELODEON+2:618000000:INVERSION_AUTO:6952000:FEC_3_4:QAM_256:1271:1272:1270
FOX+2:618000000:INVERSION_AUTO:6952000:FEC_3_4:QAM_256:1281:1282:1280
SOMOS+2:618000000:INVERSION_AUTO:6952000:FEC_3_4:QAM_256:1301:1302:1300
VH1+2:618000000:INVERSION_AUTO:6952000:FEC_3_4:QAM_256:1311:1312:1310
DISNEY+2:618000000:INVERSION_AUTO:6952000:FEC_3_4:QAM_256:1321:1322:1320
SUNDANCE+2:618000000:INVERSION_AUTO:6952000:FEC_3_4:QAM_256:1331:1332:1330
TNT+2:618000000:INVERSION_AUTO:6952000:FEC_3_4:QAM_256:1381:1382:1380
COSMOPOLITAN+2:618000000:INVERSION_AUTO:6952000:FEC_3_4:QAM_256:1391:1392:1390
DISNEY XD+2:618000000:INVERSION_AUTO:6952000:FEC_3_4:QAM_256:1651:1652:1650
ODISEA HD:626000000:INVERSION_AUTO:6952000:FEC_3_4:QAM_256:7111:7112:7110
AMC HD:626000000:INVERSION_AUTO:6952000:FEC_3_4:QAM_256:7331:7332:7330
COSMO HD+2:626000000:INVERSION_AUTO:6952000:FEC_3_4:QAM_256:7381:7382:7380
TCM HD:666000000:INVERSION_AUTO:6952000:FEC_3_4:QAM_256:7141:7142:7140
DCASA HD:666000000:INVERSION_AUTO:6952000:FEC_3_4:QAM_256:7311:7312:7310
AMC HD +2:666000000:INVERSION_AUTO:6952000:FEC_3_4:QAM_256:7371:7372:7370
COCINA HD:674000000:INVERSION_AUTO:6952000:FEC_3_4:QAM_256:7131:7132:7130
COMEDY CENTRAL HD:674000000:INVERSION_AUTO:6952000:FEC_3_4:QAM_256:7161:7162:7160
SUNDANCE HD:674000000:INVERSION_AUTO:6952000:FEC_3_4:QAM_256:7281:7282:7280
LA 1:690000000:INVERSION_AUTO:6875000:FEC_3_4:QAM_64:5011:5012:5010
CLANTV:690000000:INVERSION_AUTO:6875000:FEC_3_4:QAM_64:5041:5042:5040
ETB 1:690000000:INVERSION_AUTO:6875000:FEC_3_4:QAM_64:5051:5052:5050
ETB 2:690000000:INVERSION_AUTO:6875000:FEC_3_4:QAM_64:5061:5062:5060
ETB 3:690000000:INVERSION_AUTO:6875000:FEC_3_4:QAM_64:5081:5082:5080
LA 2:690000000:INVERSION_AUTO:6875000:FEC_3_4:QAM_64:5251:5252:5250
ETB 4:690000000:INVERSION_AUTO:6875000:FEC_3_4:QAM_64:5301:5302:5300
TELEDEPORTE:698000000:INVERSION_AUTO:6875000:FEC_3_4:QAM_64:151:152:150
DISCOVERY MAX:698000000:INVERSION_AUTO:6875000:FEC_3_4:QAM_64:5091:5092:5090
DIVINITY:698000000:INVERSION_AUTO:6875000:FEC_3_4:QAM_64:5121:5122:5120
CUATRO:698000000:INVERSION_AUTO:6875000:FEC_3_4:QAM_64:5131:5132:5130
LA SEXTA:698000000:INVERSION_AUTO:6875000:FEC_3_4:QAM_64:5211:5212:5210
BOING:698000000:INVERSION_AUTO:6875000:FEC_3_4:QAM_64:5241:5242:5240
FDF:706000000:INVERSION_AUTO:6875000:FEC_3_4:QAM_64:5151:5152:5150
NOVA:706000000:INVERSION_AUTO:6875000:FEC_3_4:QAM_64:5181:5182:5180
NEOX:706000000:INVERSION_AUTO:6875000:FEC_3_4:QAM_64:5191:5192:5190
ANTENA 3:706000000:INVERSION_AUTO:6875000:FEC_3_4:QAM_64:5201:5202:5200
TELE 5:706000000:INVERSION_AUTO:6875000:FEC_3_4:QAM_64:5271:5272:5270
ETB2:706000000:INVERSION_AUTO:6875000:FEC_3_4:QAM_64:5341:5342:5340
GLOBAL 7:706000000:INVERSION_AUTO:6875000:FEC_3_4:QAM_64:6131:6132:6130
CANAL SERIES XTRA:714000000:INVERSION_AUTO:6875000:FEC_3_4:QAM_64:1221:1222:1220
CANAL SERIES XTRA HD:714000000:INVERSION_AUTO:6875000:FEC_3_4:QAM_64:1641:1642:1640
MTV ROCKS:730000000:INVERSION_AUTO:6875000:FEC_3_4:QAM_64:681:682:680
MTV DANCE:730000000:INVERSION_AUTO:6875000:FEC_3_4:QAM_64:691:692:690
VH1:730000000:INVERSION_AUTO:6875000:FEC_3_4:QAM_64:721:722:720
MTV HITS:730000000:INVERSION_AUTO:6875000:FEC_3_4:QAM_64:761:762:760
VH1 CLASSIC:730000000:INVERSION_AUTO:6875000:FEC_3_4:QAM_64:781:782:780
RTPi:730000000:INVERSION_AUTO:6875000:FEC_3_4:QAM_64:931:932:930
BABY TV:730000000:INVERSION_AUTO:6875000:FEC_3_4:QAM_64:1261:1262:1260
AXN WHITE:730000000:INVERSION_AUTO:6875000:FEC_3_4:QAM_64:5101:5102:5100
MTV MUSIC:738000000:INVERSION_AUTO:6875000:FEC_3_4:QAM_64:771:772:770
ANDALUCIA:738000000:INVERSION_AUTO:6875000:FEC_3_4:QAM_64:811:812:810
TV GALICIA:738000000:INVERSION_AUTO:6875000:FEC_3_4:QAM_64:821:822:820
EURONEWS:738000000:INVERSION_AUTO:6875000:FEC_3_4:QAM_64:971:970:970
AL JAZEERA:738000000:INVERSION_AUTO:6875000:FEC_3_4:QAM_64:981:982:980
TELESUR:738000000:INVERSION_AUTO:6875000:FEC_3_4:QAM_64:1011:1012:1010
COMEDY CENTRAL:746000000:INVERSION_AUTO:6875000:FEC_3_4:QAM_64:221:222:220
HISTORIA:746000000:INVERSION_AUTO:6875000:FEC_3_4:QAM_64:321:322:320
A&E:746000000:INVERSION_AUTO:6875000:FEC_3_4:QAM_64:441:442:440
VIAJAR:746000000:INVERSION_AUTO:6875000:FEC_3_4:QAM_64:451:452:450
RECORD TV:746000000:INVERSION_AUTO:6875000:FEC_3_4:QAM_64:1021:1022:1020
SUNDANCE:746000000:INVERSION_AUTO:6875000:FEC_3_4:QAM_64:1141:1142:1140
#99:754000000:INVERSION_AUTO:6875000:FEC_3_4:QAM_64:0:0:99
#100:754000000:INVERSION_AUTO:6875000:FEC_3_4:QAM_64:0:0:100
#103:754000000:INVERSION_AUTO:6875000:FEC_3_4:QAM_64:0:0:103
#106:754000000:INVERSION_AUTO:6875000:FEC_3_4:QAM_64:0:0:106
#107:754000000:INVERSION_AUTO:6875000:FEC_3_4:QAM_64:0:0:107
#108:754000000:INVERSION_AUTO:6875000:FEC_3_4:QAM_64:0:0:108
#246:754000000:INVERSION_AUTO:6875000:FEC_3_4:QAM_64:0:0:246
#256:754000000:INVERSION_AUTO:6875000:FEC_3_4:QAM_64:0:0:256
BBC WORLD:754000000:INVERSION_AUTO:6875000:FEC_3_4:QAM_64:961:962:960
#3000:754000000:INVERSION_AUTO:6875000:FEC_3_4:QAM_64:0:0:3000
#3100:754000000:INVERSION_AUTO:6875000:FEC_3_4:QAM_64:0:0:3100
#3300:754000000:INVERSION_AUTO:6875000:FEC_3_4:QAM_64:0:0:3300
EITB IRRATIA:754000000:INVERSION_AUTO:6875000:FEC_3_4:QAM_64:0:4542:4540
EUROPA FM Gip:754000000:INVERSION_AUTO:6875000:FEC_3_4:QAM_64:0:4552:4550
TV5 MONDE:762000000:INVERSION_AUTO:6875000:FEC_3_4:QAM_64:621:622:620
CARACOL TV:762000000:INVERSION_AUTO:6875000:FEC_3_4:QAM_64:991:992:990
PLAYBOY:762000000:INVERSION_AUTO:6875000:FEC_3_4:QAM_64:1171:1172:1170
STINGRAY.EXITOS:762000000:INVERSION_AUTO:6875000:FEC_3_4:QAM_64:0:4612:4610
STINGRAY.ROCK CLASICO:762000000:INVERSION_AUTO:6875000:FEC_3_4:QAM_64:0:4622:4620
STINGRAY.ALTERNATIVO:762000000:INVERSION_AUTO:6875000:FEC_3_4:QAM_64:0:4632:4630
STINGRAY.REVIVAL:762000000:INVERSION_AUTO:6875000:FEC_3_4:QAM_64:0:4642:4640
STINGRAY.EXITOS ESPANA:762000000:INVERSION_AUTO:6875000:FEC_3_4:QAM_64:0:4652:4650
STINGRAY.MUSICA DEL MUNDO:762000000:INVERSION_AUTO:6875000:FEC_3_4:QAM_64:0:4662:4660
STINGRAY.CLASIC FAVORIT:762000000:INVERSION_AUTO:6875000:FEC_3_4:QAM_64:0:4672:4670
STINGRAY.CANCIONES AMOR:762000000:INVERSION_AUTO:6875000:FEC_3_4:QAM_64:0:4682:4680
STINGRAY.HIMNOS ROCK:762000000:INVERSION_AUTO:6875000:FEC_3_4:QAM_64:0:4692:4690
STINGRAY.DANCE:762000000:INVERSION_AUTO:6875000:FEC_3_4:QAM_64:0:4702:4700
IBERALIA:762000000:INVERSION_AUTO:6875000:FEC_3_4:QAM_64:211:212:210
DW:762000000:INVERSION_AUTO:6875000:FEC_3_4:QAM_64:611:612:610
TNT:770000000:INVERSION_AUTO:6952000:FEC_3_4:QAM_256:251:252:250
CALLE 13:770000000:INVERSION_AUTO:6952000:FEC_3_4:QAM_256:281:282:280
TCM:770000000:INVERSION_AUTO:6952000:FEC_3_4:QAM_256:291:292:290
NATIONAL GEO:770000000:INVERSION_AUTO:6952000:FEC_3_4:QAM_256:421:422:420
NATGEO WILD:770000000:INVERSION_AUTO:6952000:FEC_3_4:QAM_256:431:432:430
DISCOVERY:770000000:INVERSION_AUTO:6952000:FEC_3_4:QAM_256:461:462:460
DISNEY JUNIOR:770000000:INVERSION_AUTO:6952000:FEC_3_4:QAM_256:1231:1232:1230
FOX HD+2:778000000:INVERSION_AUTO:6952000:FEC_3_4:QAM_256:7411:7412:7410
HOLLYWOOD HD+2:778000000:INVERSION_AUTO:6952000:FEC_3_4:QAM_256:7421:7422:7420
MTV LIVE HD+2:778000000:INVERSION_AUTO:6952000:FEC_3_4:QAM_256:7431:7432:7430
INDICE:786000000:INVERSION_AUTO:6952000:FEC_3_4:QAM_256:581:0:580
EXTREME SPORTS:786000000:INVERSION_AUTO:6952000:FEC_3_4:QAM_256:601:602:600
CANAL SERIES:786000000:INVERSION_AUTO:6952000:FEC_3_4:QAM_256:1241:7662:1240
CANAL ESTRENOS:786000000:INVERSION_AUTO:6952000:FEC_3_4:QAM_256:1251:7672:1250
FRANCE 2 HD:786000000:INVERSION_AUTO:6952000:FEC_3_4:QAM_256:6561:6562:6560
FRANCE 3 HD:786000000:INVERSION_AUTO:6952000:FEC_3_4:QAM_256:6571:6572:6570
GARAGE TV:786000000:INVERSION_AUTO:6952000:FEC_3_4:QAM_256:1101:1102:7530
FOX:794000000:INVERSION_AUTO:6952000:FEC_3_4:QAM_256:231:232:230
AXN:794000000:INVERSION_AUTO:6952000:FEC_3_4:QAM_256:241:242:240
SOMOS:794000000:INVERSION_AUTO:6952000:FEC_3_4:QAM_256:271:272:270
ODISEA:794000000:INVERSION_AUTO:6952000:FEC_3_4:QAM_256:311:312:310
PANDA:794000000:INVERSION_AUTO:6952000:FEC_3_4:QAM_256:371:372:370
FOXLIFE:794000000:INVERSION_AUTO:6952000:FEC_3_4:QAM_256:381:382:380
SOL MUSICA:794000000:INVERSION_AUTO:6952000:FEC_3_4:QAM_256:411:412:410
DCASA:794000000:INVERSION_AUTO:6952000:FEC_3_4:QAM_256:531:532:530
DISNEY XD:794000000:INVERSION_AUTO:6952000:FEC_3_4:QAM_256:1181:1182:1180
COSMOPOLITAN:794000000:INVERSION_AUTO:6952000:FEC_3_4:QAM_256:1191:1192:1190
SYFY:802000000:INVERSION_AUTO:6875000:FEC_3_4:QAM_64:491:492:490
CNN:802000000:INVERSION_AUTO:6875000:FEC_3_4:QAM_64:1001:1002:1000
DISNEY:802000000:INVERSION_AUTO:6875000:FEC_3_4:QAM_64:1201:1202:1200
EUROSPORT:810000000:INVERSION_AUTO:6875000:FEC_3_4:QAM_64:171:1012:170
NICKELODEON:810000000:INVERSION_AUTO:6875000:FEC_3_4:QAM_64:361:362:360
BLOOMBERG:810000000:INVERSION_AUTO:6875000:FEC_3_4:QAM_64:631:632:630
AMC:810000000:INVERSION_AUTO:6875000:FEC_3_4:QAM_64:1071:1072:1070
XTREME:810000000:INVERSION_AUTO:6875000:FEC_3_4:QAM_64:1091:1092:1090
DARK:810000000:INVERSION_AUTO:6875000:FEC_3_4:QAM_64:1101:1102:1100
13 TV:826000000:INVERSION_AUTO:6875000:FEC_3_4:QAM_64:5171:5172:5170
PARAM. CHANNEL:826000000:INVERSION_AUTO:6875000:FEC_3_4:QAM_64:5261:5262:5260
BIZKAIATV:826000000:INVERSION_AUTO:6875000:FEC_3_4:QAM_64:6071:6072:6070
HAMAIKA TB (GIP):826000000:INVERSION_AUTO:6875000:FEC_3_4:QAM_64:6081:6082:6080
OIZMENDI TB:826000000:INVERSION_AUTO:6875000:FEC_3_4:QAM_64:6091:6092:6090
TELE 7:826000000:INVERSION_AUTO:6875000:FEC_3_4:QAM_64:6111:6112:6110
UROLA TB:826000000:INVERSION_AUTO:6875000:FEC_3_4:QAM_64:6141:6142:6140
TVCi:834000000:INVERSION_AUTO:6875000:FEC_3_4:QAM_64:841:842:840
PRO TV ROMANIA:834000000:INVERSION_AUTO:6875000:FEC_3_4:QAM_64:941:942:940
TEN:834000000:INVERSION_AUTO:6875000:FEC_3_4:QAM_64:5021:5022:5020
CANAL 24 HORAS:834000000:INVERSION_AUTO:6875000:FEC_3_4:QAM_64:5031:5032:5030
DKISS:834000000:INVERSION_AUTO:6875000:FEC_3_4:QAM_64:5071:5072:5070
GOLTV:834000000:INVERSION_AUTO:6875000:FEC_3_4:QAM_64:5161:5162:5160
DOTB DURANGALDEA:834000000:INVERSION_AUTO:6875000:FEC_3_4:QAM_64:6021:6022:6020
HAMAIKA TB:842000000:INVERSION_AUTO:6875000:FEC_3_4:QAM_64:516:4116:65
FRANCE 2:842000000:INVERSION_AUTO:6875000:FEC_3_4:QAM_64:1031:1032:1030
FRANCE 3:842000000:INVERSION_AUTO:6875000:FEC_3_4:QAM_64:1041:1042:1040
GOIENA TB:842000000:INVERSION_AUTO:6875000:FEC_3_4:QAM_64:6001:6002:6000
TELEDONOSTI:842000000:INVERSION_AUTO:6875000:FEC_3_4:QAM_64:6011:6012:6010
GOIERRI TB:842000000:INVERSION_AUTO:6875000:FEC_3_4:QAM_64:6031:6032:6030
28 KANALA:842000000:INVERSION_AUTO:6875000:FEC_3_4:QAM_64:6041:6042:6040
